[
    {
        "id": "ingr-0",
        "name": "egg(s)"
    },
    {
        "id": "ingr-1",
        "name": "butter"
    },
    {
        "id": "ingr-2",
        "name": "cheddar cheese"
    },
    {
        "id": "ingr-3",
        "name": "ham"
    },
    {
        "id": "ingr-4",
        "name": "salt"
    },
    {
        "id": "ingr-5",
        "name": "black pepper"
    },
    {
        "id": "ingr-6",
        "name": "chicken breast(s)"
    },
    {
        "id": "ingr-7",
        "name": "olive oil"
    },
    {
        "id": "ingr-8",
        "name": "cumin"
    },
    {
        "id": "ingr-9",
        "name": "garlic clove(s)"
    },
    {
        "id": "ingr-10",
        "name": "lemon(s)"
    },
    {
        "id": "ingr-11",
        "name": "chicken stock cube(s)"
    },
    {
        "id": "ingr-12",
        "name": "salad leaves"
    },
    {
        "id": "ingr-13",
        "name": "tomato(es)"
    },
    {
        "id": "ingr-14",
        "name": "carrot(s)"
    },
    {
        "id": "ingr-15",
        "name": "sprig fresh mint"
    },
    {
        "id": "ingr-16",
        "name": "flatbread(s)"
    },
    {
        "id": "ingr-17",
        "name": "hummus"
    },
    {
        "id": "ingr-18",
        "name": "hot chilli sauce"
    },
    {
        "id": "ingr-19",
        "name": "sunflower oil"
    },
    {
        "id": "ingr-20",
        "name": "onion(s)"
    },
    {
        "id": "ingr-21",
        "name": "new potato(es)"
    },
    {
        "id": "ingr-22",
        "name": "corned beef"
    },
    {
        "id": "ingr-23",
        "name": "Worcestershire sauce"
    },
    {
        "id": "ingr-24",
        "name": "red pepper(s)"
    },
    {
        "id": "ingr-25",
        "name": "yellow pepper(s)"
    },
    {
        "id": "ingr-26",
        "name": "orange pepper(s)"
    },
    {
        "id": "ingr-27",
        "name": "gnocchi"
    },
    {
        "id": "ingr-28",
        "name": "pork sausage(s)"
    },
    {
        "id": "ingr-29",
        "name": "white wine vinegar"
    },
    {
        "id": "ingr-30",
        "name": "fat-free natural Greek-style yoghurt"
    },
    {
        "id": "ingr-31",
        "name": "banana(s)"
    },
    {
        "id": "ingr-32",
        "name": "mixed seeds (pumpkin, sesame and sunflower)"
    },
    {
        "id": "ingr-33",
        "name": "milk"
    },
    {
        "id": "ingr-34",
        "name": "white bread"
    },
    {
        "id": "ingr-35",
        "name": "smoked pancetta"
    },
    {
        "id": "ingr-36",
        "name": "fresh root ginger"
    },
    {
        "id": "ingr-37",
        "name": "dried red chilli flakes"
    },
    {
        "id": "ingr-38",
        "name": "sweet potato(es)"
    },
    {
        "id": "ingr-39",
        "name": "vegetable stock(s)"
    },
    {
        "id": "ingr-40",
        "name": "flour"
    }
]