[
    {
        "id": "recipe-0",
        "user_id": "user-0",
        "title": "Cheese and ham omelette",
        "description": "Try this classic omelette for brunch or serve with lots of green salad for a quick and satisfying dinner. \n Each serving provides 492 kcal, 39g protein, 0g carbohydrates (of which 0g sugars), 37g fat (of which 17g saturates), 0g fibre and 3.3g salt.",
        "prep_time": 15,
        "cook_time": 10,
        "servings": 1,
        "method": "Gently beat the eggs together in a mixing bowl and season, to taste, with salt and pepper. \n Heat the butter in a frying pan until foaming. Pour in the eggs and cook for a few seconds, until the bottom of the omelette is lightly set. Push the set parts of the omelette into the uncooked centre of the omelette. Cook again, until the omelette has set further, then push those set parts into the centre of the omelette again. Repeat the process until the eggs have just set but the omelette is still soft in the centre. \n Put the cheese and three-quarters of the ham in the centre of the omelette and cook until the cheese has melted. \n Increase the heat to high and cook the omelette for a further 30 seconds, or until it browns on the bottom. \n Fold the omelette in half, then remove the pan from the heat and tilt it slightly to move the omelette to the edge of the pan. Slide the omelette onto a serving plate, then shape it into a neat roll. Sprinkle over the remaining ham.",
        "image_id": "img-3",
        "recipe_url": "https://www.bbc.co.uk/food/recipes/cheeseomelette_80621"
    },
    {
        "id": "recipe-1",
        "user_id": "user-0",
        "title": "Chicken kebab wrap",
        "description": "An easy chicken kebab recipe that's ready in 15 minutes. Students and families alike will love the mix of hot and fresh flavours.",
        "prep_time": 30,
        "cook_time": 10,
        "servings": 2,
        "method": "Place the chicken breasts on a chopping board and cover loosely with a sheet of cling film. Using a rolling pin or a meat mallet, pound them to flatten the thickest parts so that the breasts are relatively even in thickness all over. \n Mix the oil, cumin, garlic, half the lemon juice and some black pepper in a bowl and swish the chicken around to coat it completely. Cover and leave the chicken in the fridge to marinate for 10 minutes, if you have time. \n Meanwhile, to make the salad, mix together the leaves, tomato, carrot and mint. Set aside. \n Heat a frying pan until very hot. Lift the chicken and allow the excess marinade to drip off. Cook in the hot pan on a high heat for 2 minutes on each side. \n Add the stock – it will bubble up rapidly. Reduce the heat to medium and partly cover. Cook the chicken for 5 more minutes, or until cooked through (you’ll need to remove it from the pan and cut into it to make sure it’s cooked). Put the cooked chicken on a warm plate and scrape all the juices out on the top. \n To serve, heat the flatbreads in the frying pan over a medium-high heat for a minute on either side, until they are warmed through and a little toasty. Place the flatbreads on two plates and spread each with some hummus. Slice the chicken into thin strips and divide between the two flatbreads. Top with the salad, hot chilli sauce (or other sauce if you prefer) and a squeeze of lemon juice. Roll up and serve.",
        "image_id": "img-4",
        "recipe_url": "https://www.bbc.co.uk/food/recipes/chicken_kebab_wrap_35076"
    },
    {
        "id": "recipe-2",
        "user_id": "user-0",
        "title": "Corned beef hash",
        "description": "Have this cheap and cheerful store-cupboard-ingredient recipe up your sleeve for a last-minute brunch or lunch for two. \n Each serving provides 480 kcal, 28g protein, 35g carbohydrates (of which 8g sugars), 24g fat (of which 6.5g saturates), 5g fibre and 1.8g salt.",
        "prep_time": 30,
        "cook_time": 30,
        "servings": 2,
        "method": "Heat the oil in a medium frying pan or wide-based saucepan and gently fry the onion for 3–4 minutes, or until lightly browned. \n Add the potatoes and use a potato masher to roughly crush them. Fry over a medium heat for 5 minutes, or until the onion is softened and the potatoes are hot and browned in places, stirring regularly. \n Add the corned beef and break up roughly with a spoon. Cook for 3–4 minutes, or until hot, stirring occasionally. \n Make two holes in the corned beef and potato mixture and break an egg into each one. Fry for 2–3 minutes, or until the whites are set but the yolks remain runny. \n Serve heaps of the corned beef hash on warmed plates, topped with the fried eggs. Shake Worcestershire sauce over and season with pepper.",
        "image_id": "img-5",
        "recipe_url": "https://www.bbc.co.uk/food/recipes/corned_beef_hash_43424"
    },
    {
        "id": "recipe-3",
        "user_id": "user-1",
        "title": "Sausage bake with gnocchi",
        "description": "This easy sausage bake is made with gnocchi rather than pasta. Roasted gnocchi is magical – while the inside stays light and fluffy, the outside goes crisp and golden, like mini roast potatoes. \n Each serving provides 600 kcal, 24g protein, 47g carbohydrates (of which 10g sugars), 33.5g fat (of which 12g saturates), 8g fibre and 1.8g salt.",
        "prep_time": 30,
        "cook_time": 25,
        "servings": 2,
        "method": "Preheat the oven to 200C/180C Fan/Gas 6. \n Deseed and cut the red, yellow and orange peppers into chunks. \n Toss together the peppers, gnocchi, olive oil and a generous amount of salt and pepper on a large baking tray. \n Place the sausages on the tray. Roast for 25 minutes, or until the sausages and gnocchi are golden-brown and the peppers are soft and have started to brown around the edges. Serve.",
        "image_id": "img-6",
        "recipe_url": "https://www.bbc.co.uk/food/recipes/sausage_and_gnocchi_bake_80924"
    },
    {
        "id": "recipe-4",
        "user_id": "user-1",
        "title": "Poached eggs",
        "description": "Three minutes to cook, a lifetime to master – the poached egg makes a great breakfast or welcome addition to a light supper. Don't panic. You can do this.",
        "prep_time": 5,
        "cook_time": 3,
        "servings": 2,
        "method": "Fill a small pan just over one third full with cold water and bring it to the boil. \n Add the vinegar and turn down to simmer. \n Crack the eggs one at a time into a small bowl and gently tip into the simmering water. Lightly poach for 2-3 minutes. \n Remove with a slotted spoon and drain on kitchen towels. \n Season with salt and freshly ground black pepper and serve immediately.",
        "image_id": "img-7",
        "recipe_url": "https://www.bbc.co.uk/food/recipes/poachedeggs_86686"
    },
    {
        "id": "recipe-5",
        "user_id": "user-1",
        "title": "Crunchy banana yoghurt",
        "description": "Banana and yoghurt are a perfect low-calorie breakfast combination that will keep you going until lunchtime. The banana adds sweetness without the need for extra sugar and the seeds bring a satisfying crunch. \n As part of an Intermittent diet plan, 1 serving provides: Your daily piece of fruit 2 of your 3 daily low-fat dairy portions This meal provides 149 kcal per portion.",
        "prep_time": 10,
        "cook_time": 0,
        "servings": 2,
        "method": "Peel and slice a banana. \n Divide the yoghurt between two small bowls. Scatter the banana on top. \n Sprinkle with seeds or nuts and serve.",
        "image_id": "img-8",
        "recipe_url": "https://www.bbc.co.uk/food/recipes/crunchy_banana_yoghurt_48211"
    },
    {
        "id": "recipe-6",
        "user_id": "user-2",
        "title": "Bacon eggy bread",
        "description": "Savoury eggy bread in minutes. You can even make this the night before, ready to pop into the microwave in the morning.",
        "prep_time": 10,
        "cook_time": 10,
        "servings": 1,
        "method": "Break the egg into a mug, add a pinch of salt and pepper and beat well. Beat in the milk. Tear the bread into pieces and push into the eggy milk. Allow to stand for 5 minutes (or overnight). \n Scatter the pancetta over the top and season with more pepper. \n Microwave on high power for 2 minutes. Allow to stand for 30 seconds, then microwave for another minute. Leave to cool for 1 minute and it’s ready to eat!",
        "image_id": "img-9",
        "recipe_url": "https://www.bbc.co.uk/food/recipes/bacon_eggy_bread_22406"
    },
    {
        "id": "recipe-7",
        "user_id": "user-2",
        "title": "Sweet potato soup",
        "description": "Sweet potato soup is a big bowl of comfort. It's vegan, has cheap ingredients, is quick and easy to make. It can also be frozen for future lunches and dinners. Perfection! \n Each serving provides 234 kcal, 3g protein, 43g carbohydrates (of which 16g sugars), 4g fat (of which 0.5g saturates), 9g fibre and 0.5g salt.",
        "prep_time": 25,
        "cook_time": 20,
        "servings": 4,
        "method": "Roughly chop the onion. Peel and roughly chop carrots. Finely chop the root ginger. Crush a garlic clove. Peel and cube the sweet potatoes. \n Heat the oil in a large, lidded saucepan over a medium-high heat. Add the onion and carrots and cook until softened. Stir in the ginger, garlic and chilli flakes and fry for 2–3 minutes, or until fragrant. \n Stir in the sweet potatoes and stock. Turn up the heat and bring the pan to the boil. Reduce the heat to low and simmer with the lid on for 15 minutes, or until the sweet potato is tender. \n Remove the pan from the heat and blend the soup, using a stick blender, until smooth. Alternatively, tip it into a food processor and blend. Season to taste and serve.",
        "image_id": "img-10",
        "recipe_url": "https://www.bbc.co.uk/food/recipes/sweet_potato_soup_62834"
    },
    {
        "id": "recipe-8",
        "user_id": "user-2",
        "title": "Pancakes",
        "description": "Classic pancakes for a feel good meal or desert! Cheap, quick and simple to make. Cook a serving in less than 3 minutes!",
        "prep_time": 5,
        "cook_time": 3,
        "servings": 6,
        "method": "Add flour and salt to a mixing bowl. Make a well in the centre of the flour and put the egg in. \n Slowly add half the milk whilst beating the flour with a spoon until it forms a thick batter. \n Add the remaining milk and a teaspoon of oil to the mix and beat until smooth. \n Heat a frying pan with the remaining oil, and when hot add a ladle of the batter to the pan then quickly turn the pan to spread the batter evenly. \n Cook the batter on a high heat until the underside is golden-brown. Using a spatula, flip the pancake to the opposite side and cook until golden-brown. \n Serve pancake onto a plate and add a sprinkling of sugar and lemon juice.",
        "image_id": "img-11",
        "recipe_url": ""
    }
]